Eviction Dashboard
…
Who were the top evictors in each of these counties? This step tells us how many evictions were filed in each court from 2018-2019?

plaintiff <- okevict %>% 
  ungroup %>% 
  count(court, iss_plaint) %>% 
  arrange(desc(n))

plaintiff

## # A tibble: 11,418 x 3
##    court     iss_plaint                                n
##    <chr>     <chr>                                 <int>
##  1 CLEVELAND BROOKWOOD VILLAGE APARTMENTS LLC        789
##  2 TULSA     COBBLESTONE APARTMENTS                  678
##  3 TULSA     SOMERSET PARK AT UNION APARTMENTS       520
##  4 TULSA     CASCADES AT SOUTHERN HILLS APARTMENTS   449
##  5 CLEVELAND COUNTRY CREEK                           436
##  6 TULSA     VISTA AT SHADOW MOUNTAIN APARTMENTS     370
##  7 TULSA     LINCOLN GLENS APARTMENTS                368
##  8 TULSA     HUNTINGTON HOLLOW APARTMENTS            358
##  9 OKLAHOMA  QUAIL RIDGE APARTMENTS LLC              330
## 10 OKLAHOMA  OAKWOOD PROPERTY MGMT LLC               320
## #  with 11,408 more rows
…
canadian <- okevict %>% 
  filter(court == "CANADIAN") %>% 
  mutate(plaint_clean = windex(iss_plaint))

canadiancount <- canadian %>% 
  ungroup %>% 
  count(court, plaint_clean) %>% 
  arrange(desc(n)) %>% 
  group_by(court)

3.0.2 this step calculates what percentage of evictors accounted for 50% of all eviction filings

tulsacount

## # A tibble: 3,019 x 3
## # Groups:   court [1]
##    court plaint_clean                           n
##    <chr> <chr>                              <int>
##  1 TULSA COBBLESTONE APARTMENTS               706
##  2 TULSA VISTA SHADOW MOUNTAIN APARTMENTS     570
##  3 TULSA SOMERSET PARK UNION APARTMENTS       550
##  4 TULSA CASCADES SOUTHERN HILLS APARTMENTS   449
##  5 TULSA GREENS OWASSO                        409
##  6 TULSA HUNTINGTON HOLLOW APARTMENTS         377
##  7 TULSA LINCOLN GLENS APARTMENTS             377
##  8 TULSA LONDON SQUARE APARTMENTS             342
##  9 TULSA GREENS BROKEN ARROW                  304
## 10 TULSA RIVERCHASE APARTMENTS                303
## #  with 3,009 more rows
…
